{
    "estados": [
        {
            "Id": 1,
            "label": "AGUASCALIENTES",
            "value": "AS",
            "Code": "AS"
        },
        {
            "Id": 2,
            "label": "BAJA CALIFORNIA",
            "value": "BC",
            "Code": "BC"
        },
        {
            "Id": 3,
            "label": "BAJA CALIFORNIA SUR",
            "value": "BS",
            "Code": "BS"
        },
        {
            "Id": 4,
            "label": "CAMPECHE",
            "value": "CC",
            "Code": "CC"
        },
        {
            "Id": 5,
            "label": "CHIAPAS",
            "value": "CS",
            "Code": "CS"
        },
        {
            "Id": 6,
            "label": "CHIHUAHUA",
            "value": "CH",
            "Code": "CH"
        },
        {
            "Id": 7,
            "label": "COAHUILA",
            "value": "CL",
            "Code": "CL"
        },
        {
            "Id": 8,
            "label": "COLIMA",
            "value": "CM",
            "Code": "CM"
        },
        {
            "Id": 9,
            "label": "CIUDAD DE MÉXICO",
            "value": "DF",
            "Code": "DF"
        },
        {
            "Id": 10,
            "label": "DURANGO",
            "value": "DG",
            "Code": "DG"
        },
        {
            "Id": 11,
            "label": "GUANAJUATO",
            "value": "GT",
            "Code": "GT"
        },
        {
            "Id": 12,
            "label": "GUERRERO",
            "value": "GR",
            "Code": "GR"
        },
        {
            "Id": 13,
            "label": "HIDALGO",
            "value": "HG",
            "Code": "HG"
        },
        {
            "Id": 14,
            "label": "JALISCO",
            "value": "JC",
            "Code": "JC"
        },
        {
            "Id": 15,
            "label": "MÉXICO",
            "value": "MC",
            "Code": "MC"
        },
        {
            "Id": 16,
            "label": "MICHOACÁN",
            "value": "MN",
            "Code": "MN"
        },
        {
            "Id": 17,
            "label": "MORELOS",
            "value": "MS",
            "Code": "MS"
        },
        {
            "Id": 18,
            "label": "NAYARIT",
            "value": "NT",
            "Code": "NT"
        },
        {
            "Id": 19,
            "label": "NUEVO LEÓN",
            "value": "NL",
            "Code": "NL"
        },
        {
            "Id": 20,
            "label": "OAXACA",
            "value": "OC",
            "Code": "OC"
        },
        {
            "Id": 21,
            "label": "PUEBLA",
            "value": "PL",
            "Code": "PL"
        },
        {
            "Id": 22,
            "label": "QUERÉTARO",
            "value": "QO",
            "Code": "QO"
        },
        {
            "Id": 23,
            "label": "QUINTANA ROO",
            "value": "QR",
            "Code": "QR"
        },
        {
            "Id": 24,
            "label": "SAN LUIS POTOSÍ",
            "value": "SP",
            "Code": "SP"
        },
        {
            "Id": 25,
            "label": "SINALOA",
            "value": "SL",
            "Code": "SL"
        },
        {
            "Id": 26,
            "label": "SONORA",
            "value": "SR",
            "Code": "SR"
        },
        {
            "Id": 27,
            "label": "TABASCO",
            "value": "TC",
            "Code": "TC"
        },
        {
            "Id": 28,
            "label": "TAMAULIPAS",
            "value": "TS",
            "Code": "TS"
        },
        {
            "Id": 29,
            "label": "TLAXCALA",
            "value": "TL",
            "Code": "TL"
        },
        {
            "Id": 30,
            "label": "VERACRUZ",
            "value": "VZ",
            "Code": "VZ"
        },
        {
            "Id": 31,
            "label": "YUCATÁN",
            "value": "YN",
            "Code": "YN"
        },
        {
            "Id": 32,
            "label": "ZACATECAS",
            "value": "ZS",
            "Code": "ZS"
        }
    ]
}

